%YAML 1.1
%TAG !u! tag:unity3d.com,2011:
--- !u!1045 &1
EditorBuildSettings:
  m_ObjectHideFlags: 0
  serializedVersion: 2
  m_Scenes:
  - enabled: 1
    path: Assets/Scenes/scnMenuBackground.unity
  - enabled: 1
    path: Assets/Scenes/scnMainMenu.unity
  - enabled: 1
    path: Assets/Scenes/scnDifficulty.unity
  - enabled: 1
    path: Assets/Scenes/scnCredits.unity
  - enabled: 1
    path: Assets/Scenes/scnGameplay.unity
  - enabled: 1
    path: Assets/Scenes/scnGameOver.unity
